analyze_data_with_r_using_posit_workbench_and_snowflake
…
collect()

We can trigger R to execute a query and to return the entire result as a tibble with dbplyr::collect(). Keep in mind, that if your result is large, you may not want to collect it into R.

facebook |> collect()

# A tibble: 42 × 3
   DATE       VARIABLE_NAME                                                            VALUE
   <date>     <chr>                                                                    <dbl>
 1 2021-05-02 Pageviews (Count) | Week | All Devices | Model version 2024.01.25  39917694787
 2 2021-05-09 Pageviews (Count) | Week | All Devices | Model version 2024.01.25  40870514816
 3 2021-05-16 Pageviews (Count) | Week | All Devices | Model version 2024.01.25  41073679841
 4 2021-05-23 Pageviews (Count) | Week | All Devices | Model version 2024.01.25  41184673335
 5 2021-05-30 Pageviews (Count) | Week | All Devices | Model version 2024.01.25  41837064266
 6 2022-05-01 Pageviews (Count) | Week | All Devices | Model version 2024.01.25  99321575179
 7 2022-05-08 Pageviews (Count) | Week | All Devices | Model version 2024.01.25  98206319156
 8 2022-05-15 Pageviews (Count) | Week | All Devices | Model version 2024.01.25 101792763304
 9 2022-05-22 Pageviews (Count) | Week | All Devices | Model version 2024.01.25 102066608868
10 2022-05-29 Pageviews (Count) | Week | All Devices | Model version 2024.01.25 103002669500
# ℹ 32 more rows
# ℹ Use `print(n = ...)` to see more rows
…
