…
We can take a look at this view using `tbl()` and `collect()` to pull the view into
R.

```r
con |>
  tbl(main_view_name) |>
  head(100) |>
  collect()
```

```
# A tibble: 100 × 2
   ID        .pred
   <chr>     <dbl>
 1 142212962 16.7
 2 142529846 12.4
 3 141649517 13.7
 4 141671381 13.1
 5 141449070 16.9
 6 142661219 11.6
 7 142647391 15.9
 8 142646325  8.37
 9 142211815  9.98
10 142661174 11.1
# ℹ 90 more rows
# ℹ Use `print(n = ...)` to see more rows
```
…
