Analyze Data with R using Posit Workbench and Snowflake
…
collect()

We can trigger R to execute a query and to return the entire result as a tibble with dbplyr::collect(). Keep in mind, that if your result is large, you may not want to collect it into R.

heart_failure_young_df <-
  heart_failure_young |> 
  collect()
  
heart_failure_young_df

# A tibble: 47 × 4
     age   sex smoking death_event
   <dbl> <dbl>   <dbl>       <dbl>
 1    45     1       0           1
 2    49     0       0           0
 3    45     1       0           1
 4    48     0       0           1
 5    49     1       1           1
 6    45     1       0           1
 7    45     1       0           1
 8    45     0       0           0
 9    42     0       0           1
10    41     1       1           0
# ℹ 37 more rows
# ℹ Use `print(n = ...)` to see more rows
…
